alpine-baselayout-3.2.0-r8
alpine-keys-2.2-r0
alsa-lib-1.2.4-r2
aom-libs-1.0.0-r1
apache2-utils-2.4.46-r3
apk-tools-2.12.5-r0
apr-1.7.0-r0
apr-util-1.6.1-r7
argon2-libs-20190702-r1
avahi-libs-0.8-r2
bash-5.1.0-r0
brotli-libs-1.0.9-r3
busybox-1.32.1-r6
ca-certificates-20191127-r5
ca-certificates-bundle-20191127-r5
cairo-1.16.0-r2
cairo-gobject-1.16.0-r2
coreutils-8.32-r2
cups-libs-2.3.3-r1
curl-7.76.1-r0
dbus-libs-1.12.20-r1
exiftool-12.25-r0
expat-2.2.10-r1
ffmpeg-4.3.1-r3
ffmpeg-libs-4.3.1-r3
fontconfig-2.13.1-r3
freetype-2.10.4-r1
fribidi-1.0.10-r0
gdbm-1.19-r0
gdk-pixbuf-2.42.4-r0
ghostscript-9.53.3-r0
git-2.30.2-r0
git-perl-2.30.2-r0
glib-2.66.8-r0
gmp-6.2.1-r0
gnutls-3.7.1-r0
graphite2-1.3.14-r0
gzip-1.10-r1
harfbuzz-2.7.4-r1
imagemagick-7.0.10.57-r0
imagemagick-libs-7.0.10.57-r0
jbig2dec-0.19-r0
lame-3.100-r0
lcms2-2.11-r0
less-563-r0
libacl-2.2.53-r0
libass-0.15.0-r0
libattr-2.4.48-r0
libblkid-2.36.1-r1
libbsd-0.10.0-r0
libbz2-1.0.8-r1
libc-utils-0.7.2-r3
libcrypto1.1-1.1.1k-r0
libcurl-7.76.1-r0
libdav1d-0.8.1-r0
libde265-1.0.4-r0
libdrm-2.4.104-r0
libedit-20191231.3.1-r1
libffi-3.3-r2
libgcc-10.2.1_pre1-r3
libgcrypt-1.8.7-r0
libgomp-10.2.1_pre1-r3
libgpg-error-1.41-r0
libheif-1.9.1-r0
libice-1.0.10-r0
libidn2-2.3.0-r0
libintl-0.20.2-r2
libjpeg-turbo-2.1.0-r0
libjpeg-turbo-utils-2.1.0-r0
libldap-2.4.57-r1
libltdl-2.4.6-r7
libmagic-5.39-r0
libmediainfo-20.09-r0
libmount-2.36.1-r1
libogg-1.3.4-r0
libpciaccess-0.16-r0
libpng-1.6.37-r1
libproc-3.3.16-r0
libressl3.1-libcrypto-3.1.5-r0
libressl3.1-libssl-3.1.5-r0
librsvg-2.50.4-r0
libsasl-2.1.27-r10
libsm-1.2.3-r0
libsrt-1.4.2-r0
libssh-0.9.5-r0
libssl1.1-1.1.1k-r0
libstdc++-10.2.1_pre1-r3
libtasn1-4.16.0-r1
libtheora-1.1.1-r16
libtls-standalone-2.9.1-r1
libunistring-0.9.10-r0
libuuid-2.36.1-r1
libva-2.10.0-r0
libvdpau-1.4-r0
libvorbis-1.3.7-r0
libvpx-1.9.0-r0
libwebp-1.1.0-r0
libx11-1.7.0-r0
libxau-1.0.9-r0
libxcb-1.14-r1
libxdmcp-1.1.3-r0
libxext-1.3.4-r0
libxfixes-5.0.3-r2
libxft-2.3.3-r0
libxml2-2.9.10-r6
libxpm-3.5.13-r0
libxrender-0.9.10-r3
libxslt-1.1.34-r0
libxt-1.2.1-r0
libzen-0.4.38-r0
linux-pam-1.5.1-r0
logrotate-3.18.0-r0
lynx-2.8.9_p1-r1
mediainfo-20.09-r0
musl-1.2.2-r0
musl-utils-1.2.2-r0
nano-5.4-r1
ncurses-libs-6.2_p20210109-r0
ncurses-terminfo-base-6.2_p20210109-r0
nettle-3.7.2-r0
nghttp2-libs-1.42.0-r1
nginx-1.18.0-r13
oniguruma-6.9.6-r0
openjpeg-2.4.0-r1
openssl-1.1.1k-r0
opus-1.3.1-r1
p11-kit-0.23.22-r0
pango-1.48.2-r0
pcre-8.44-r0
pcre2-10.36-r0
perl-5.32.0-r0
perl-error-0.17029-r1
perl-git-2.30.2-r0
perl-image-exiftool-12.25-r0
php7-7.4.19-r0
php7-cgi-7.4.19-r0
php7-common-7.4.19-r0
php7-ctype-7.4.19-r0
php7-curl-7.4.19-r0
php7-dom-7.4.19-r0
php7-exif-7.4.19-r0
php7-fileinfo-7.4.19-r0
php7-fpm-7.4.19-r0
php7-gd-7.4.19-r0
php7-json-7.4.19-r0
php7-ldap-7.4.19-r0
php7-mbstring-7.4.19-r0
php7-mysqli-7.4.19-r0
php7-mysqlnd-7.4.19-r0
php7-openssl-7.4.19-r0
php7-pear-7.4.19-r0
php7-pecl-apcu-5.1.20-r0
php7-pecl-imagick-3.4.4-r7
php7-session-7.4.19-r0
php7-simplexml-7.4.19-r0
php7-xml-7.4.19-r0
php7-xmlrpc-7.4.19-r0
php7-xmlwriter-7.4.19-r0
php7-xsl-7.4.19-r0
pixman-0.40.0-r2
pkgconf-1.7.3-r0
poppler-20.12.1-r0
poppler-utils-20.12.1-r0
popt-1.18-r0
procps-3.3.16-r0
re2c-1.3-r1
readline-8.1.0-r0
s6-ipcserver-2.10.0.0-r0
scanelf-1.2.8-r0
sdl2-2.0.14-r0
shadow-4.8.1-r0
shared-mime-info-2.0-r0
skalibs-2.10.0.0-r0
soxr-0.1.3-r2
ssl_client-1.32.1-r6
tiff-4.2.0-r0
tinyxml2-8.0.0-r0
tzdata-2021a-r0
unzip-6.0-r8
utmps-0.1.0.0-r0
v4l-utils-libs-1.20.0-r0
vidstab-1.1.0-r1
vulkan-loader-1.2.137-r0
wayland-libs-client-1.18.0-r5
wget-1.21.1-r1
x264-libs-20191119-r1
x265-libs-3.4-r0
xvidcore-1.3.7-r1
xz-5.2.5-r0
xz-libs-5.2.5-r0
zlib-1.2.11-r3
